blowfish.vcd
$date
	Mon Mar  2 07:16:32 2026
$end
$version
	Icarus Verilog
$end
$timescale
	1ps
$end
$scope module blowfish_tb $end
$var wire 64 ! encryptedtext [63:0] $end
$var wire 64 " decryptedtext [63:0] $end
$var wire 1 # ENCRYPT_DONE $end
$var wire 1 $ DECRYPT_DONE $end
$var reg 1 % clk $end
$var reg 1 & dec $end
$var reg 1 ' enc $end
$var reg 64 ( key [63:0] $end
$var reg 64 ) plaintext [63:0] $end
$var reg 1 * rst $end
$var reg 1 + start $end
$scope module uut $end
$var wire 1 % clk $end
$var wire 1 & dec $end
$var wire 1 ' enc $end
$var wire 64 , key [63:0] $end
$var wire 64 - plaintext [63:0] $end
$var wire 1 * rst $end
$var wire 1 + start $end
$var parameter 4 . DECRYPT_FINAL $end
$var parameter 4 / DECRYPT_LEFT $end
$var parameter 4 0 DECRYPT_RIGHT $end
$var parameter 4 1 DONE $end
$var parameter 4 2 ENCRYPT_FINAL $end
$var parameter 4 3 ENCRYPT_LEFT $end
$var parameter 4 4 ENCRYPT_RIGHT $end
$var parameter 4 5 ENCRYPT_UNDO $end
$var parameter 4 6 IDLE $end
$var parameter 4 7 INIT $end
$var parameter 4 8 TRANSITION $end
$var reg 1 $ DECRYPT_DONE $end
$var reg 1 # ENCRYPT_DONE $end
$var reg 64 9 ciphertext [63:0] $end
$var reg 64 : decryptedtext [63:0] $end
$var reg 64 ; encryptedtext [63:0] $end
$var reg 1 < init $end
$var reg 32 = left [31:0] $end
$var reg 32 > right [31:0] $end
$var reg 5 ? round [4:0] $end
$var reg 5 @ state [4:0] $end
$var reg 32 A temp [31:0] $end
$scope function F $end
$var reg 32 B x [31:0] $end
$upscope $end
$upscope $end
$upscope $end
$enddefinitions $end
$comment Show the parameter values. $end
$dumpall
b1010 8
b1 7
b0 6
b100 5
b1000 4
b10 3
b11 2
b111 1
b1001 0
b101 /
b110 .
$end
#0
$dumpvars
bx B
bx A
bx @
bx ?
bx >
bx =
x<
bx ;
bx :
bx 9
b0 -
b0 ,
0+
1*
b0 )
b0 (
1'
0&
0%
x$
x#
bx "
bx !
$end
#10000
b0 @
0<
0$
0#
b0 "
b0 :
b0 !
b0 ;
b0 A
b0 >
b0 =
b0 ?
1%
#20000
0%
#30000
1%
#40000
0%
#50000
1%
#60000
0%
#70000
1%
#80000
0%
#90000
1%
#100000
0%
#110000
1%
#120000
0%
#130000
1%
#140000
0%
#150000
1%
#160000
0%
#170000
1%
#180000
0%
#190000
1%
#200000
0%
#210000
1%
#220000
0%
#230000
1%
#240000
0%
#250000
1%
#260000
0%
#270000
1%
#280000
0%
#290000
1%
#300000
0%
1+
b1100101011011110010100010100100000010101111111011110001110101000 (
b1100101011011110010100010100100000010101111111011110001110101000 ,
b100100011010001010110011110001001101010111100110111101111 )
b100100011010001010110011110001001101010111100110111101111 -
0*
#310000
b1010 @
1%
#320000
0%
#330000
b1000 @
b10001001101010111100110111101111 >
b1001000110100010101100111 =
1%
#340000
0%
#350000
b10 @
b100101000111000010111111101111 >
b10001001101010111100110111101111 A
1%
#360000
0%
#370000
b1000 @
b1 ?
b1111111101010000000100110101 =
b100101000111000010111111101111 B
1%
#380000
0%
#390000
b10 @
b10001010010101100000100111100110 >
b100101000111000010111111101111 A
1%
#400000
0%
#410000
b1000 @
b10 ?
b1100101001001110011100001000110 =
b10001010010101100000100111100110 B
1%
#420000
0%
#430000
b10 @
b1110110001111101011001001101000 >
b10001010010101100000100111100110 A
1%
#440000
0%
#450000
b1000 @
b11 ?
b1111111011011010111011100100011 =
b1110110001111101011001001101000 B
1%
#460000
0%
#470000
b10 @
b1111100000111010000010001100111 >
b1110110001111101011001001101000 A
1%
#480000
0%
#490000
b1000 @
b100 ?
b1101101010101000100010110110001 =
b1111100000111010000010001100111 B
1%
#500000
0%
#510000
b10 @
b11001001010111010111110110010011 >
b1111100000111010000010001100111 A
1%
#520000
0%
#530000
b1000 @
b101 ?
b10010111100100011010010000000100 =
b11001001010111010111110110010011 B
1%
#540000
0%
#550000
b10 @
b10111110000011101001010111010100 >
b11001001010111010111110110010011 A
1%
#560000
0%
#570000
b1000 @
b110 ?
b10111010101101110000100011001101 =
b10111110000011101001010111010100 B
1%
#580000
0%
#590000
b10 @
b10110010100110011111001001010101 >
b10111110000011101001010111010100 A
1%
#600000
0%
#610000
b1000 @
b111 ?
b10011111000001111001000110011101 =
b10110010100110011111001001010101 B
1%
#620000
0%
#630000
b10 @
b1110011010010011111110100010100 >
b10110010100110011111001001010101 A
1%
#640000
0%
#650000
b1000 @
b1000 ?
b11110100011110100100101100011011 =
b1110011010010011111110100010100 B
1%
#660000
0%
#670000
b10 @
b10110001010100100110101011111101 >
b1110011010010011111110100010100 A
1%
#680000
0%
#690000
b1000 @
b1001 ?
b10100110011110111111000100110000 =
b10110001010100100110101011111101 B
1%
#700000
0%
#710000
b10 @
b10011110101010111110001001000111 >
b10110001010100100110101011111101 A
1%
#720000
0%
#730000
b1000 @
b1010 ?
b10010000011111010101110011110110 =
b10011110101010111110001001000111 B
1%
#740000
0%
#750000
b10 @
b101110001010010011101000111001 >
b10011110101010111110001001000111 A
1%
#760000
0%
#770000
b1000 @
b1011 ?
b111110000111010011100101111000 =
b101110001010010011101000111001 B
1%
#780000
0%
#790000
b10 @
b1010111101000011010100010100 >
b101110001010010011101000111001 A
1%
#800000
0%
#810000
b1000 @
b1100 ?
b10001111011011111011011100111 =
b1010111101000011010100010100 B
1%
#820000
0%
#830000
b10 @
b11010001010000011101111101010000 >
b1010111101000011010100010100 A
1%
#840000
0%
#850000
b1000 @
b1101 ?
b10111111111111010101101001100 =
b11010001010000011101111101010000 B
1%
#860000
0%
#870000
b10 @
b11011110100000111111101110010001 >
b11010001010000011101111101010000 A
1%
#880000
0%
#890000
b1000 @
b1110 ?
b1101001100000011111100101110011 =
b11011110100000111111101110010001 B
1%
#900000
0%
#910000
b10 @
b1010110000001010010110011000110 >
b11011110100000111111101110010001 A
1%
#920000
0%
#930000
b1000 @
b1111 ?
b10110110110010110001110110100000 =
b1010110000001010010110011000110 B
1%
#940000
0%
#950000
b10 @
b11100011000001010010110111 >
b1010110000001010010110011000110 A
1%
#960000
0%
#970000
b11 @
b10000 ?
b100111111010000101011100101101 =
b11100011000001010010110111 B
1%
#980000
0%
#990000
b1010 @
b0 =
b0 >
b1111 ?
1#
b1001000110011010110000010110111010101110100100011010110000110110 9
b1001000110011010110000010110111010101110100100011010110000110110 !
b1001000110011010110000010110111010101110100100011010110000110110 ;
1%
#1000000
0%
#1010000
b0 @
1%
#1020000
0%
#1030000
b1010 @
0#
1%
#1040000
0%
#1050000
b1000 @
b0 ?
b10001001101010111100110111101111 >
b1001000110100010101100111 =
1%
#1060000
0%
#1070000
b10 @
b100101000111000010111111101111 >
b10001001101010111100110111101111 A
1%
#1080000
0%
#1090000
b1000 @
b1 ?
b1111111101010000000100110101 =
b100101000111000010111111101111 B
1%
#1100000
0%
#1110000
b10 @
b10001010010101100000100111100110 >
b100101000111000010111111101111 A
1%
#1120000
0%
#1130000
b1000 @
b10 ?
b1100101001001110011100001000110 =
b10001010010101100000100111100110 B
1%
#1140000
0%
#1150000
b10 @
b1110110001111101011001001101000 >
b10001010010101100000100111100110 A
1%
#1160000
0%
#1170000
b1000 @
b11 ?
b1111111011011010111011100100011 =
b1110110001111101011001001101000 B
1%
#1180000
0%
#1190000
b10 @
b1111100000111010000010001100111 >
b1110110001111101011001001101000 A
1%
#1200000
0%
#1210000
b1000 @
b100 ?
b1101101010101000100010110110001 =
b1111100000111010000010001100111 B
1%
#1220000
0%
#1230000
b10 @
b11001001010111010111110110010011 >
b1111100000111010000010001100111 A
1%
#1240000
0%
#1250000
b1000 @
b101 ?
b10010111100100011010010000000100 =
b11001001010111010111110110010011 B
1%
#1260000
0%
#1270000
b10 @
b10111110000011101001010111010100 >
b11001001010111010111110110010011 A
1%
#1280000
0%
#1290000
b1000 @
b110 ?
b10111010101101110000100011001101 =
b10111110000011101001010111010100 B
1%
#1300000
0%
b1010101010111011110011001101110111101110111111110001000100100010 )
b1010101010111011110011001101110111101110111111110001000100100010 -
1&
0'
#1310000
b10 @
b10110010100110011111001001010101 >
b10111110000011101001010111010100 A
1%
#1320000
0%
#1330000
b1000 @
b111 ?
b10011111000001111001000110011101 =
b10110010100110011111001001010101 B
1%
#1340000
0%
#1350000
b10 @
b1110011010010011111110100010100 >
b10110010100110011111001001010101 A
1%
#1360000
0%
#1370000
b1000 @
b1000 ?
b11110100011110100100101100011011 =
b1110011010010011111110100010100 B
1%
#1380000
0%
#1390000
b10 @
b10110001010100100110101011111101 >
b1110011010010011111110100010100 A
1%
#1400000
0%
#1410000
b1000 @
b1001 ?
b10100110011110111111000100110000 =
b10110001010100100110101011111101 B
1%
#1420000
0%
#1430000
b10 @
b10011110101010111110001001000111 >
b10110001010100100110101011111101 A
1%
#1440000
0%
#1450000
b1000 @
b1010 ?
b10010000011111010101110011110110 =
b10011110101010111110001001000111 B
1%
#1460000
0%
#1470000
b10 @
b101110001010010011101000111001 >
b10011110101010111110001001000111 A
1%
#1480000
0%
#1490000
b1000 @
b1011 ?
b111110000111010011100101111000 =
b101110001010010011101000111001 B
1%
#1500000
0%
#1510000
b10 @
b1010111101000011010100010100 >
b101110001010010011101000111001 A
1%
#1520000
0%
#1530000
b1000 @
b1100 ?
b10001111011011111011011100111 =
b1010111101000011010100010100 B
1%
#1540000
0%
#1550000
b10 @
b11010001010000011101111101010000 >
b1010111101000011010100010100 A
1%
#1560000
0%
#1570000
b1000 @
b1101 ?
b10111111111111010101101001100 =
b11010001010000011101111101010000 B
1%
#1580000
0%
#1590000
b10 @
b11011110100000111111101110010001 >
b11010001010000011101111101010000 A
1%
#1600000
0%
#1610000
b1000 @
b1110 ?
b1101001100000011111100101110011 =
b11011110100000111111101110010001 B
1%
#1620000
0%
#1630000
b10 @
b1010110000001010010110011000110 >
b11011110100000111111101110010001 A
1%
#1640000
0%
#1650000
b1000 @
b1111 ?
b10110110110010110001110110100000 =
b1010110000001010010110011000110 B
1%
#1660000
0%
#1670000
b10 @
b11100011000001010010110111 >
b1010110000001010010110011000110 A
1%
#1680000
0%
#1690000
b11 @
b10000 ?
b100111111010000101011100101101 =
b11100011000001010010110111 B
1%
#1700000
0%
#1710000
b1010 @
b0 =
b0 >
b1111 ?
1#
1%
#1720000
0%
#1730000
b100 @
1%
#1740000
0%
#1750000
b1001 @
b100111111010000101011100101101 >
b11100011000001010010110111 =
1%
#1760000
0%
#1770000
b101 @
b10110110110010110001110110100000 >
b100111111010000101011100101101 A
1%
#1780000
0%
#1790000
b1001 @
b1110 ?
b1010110000001010010110011000110 =
1%
#1800000
0%
#1810000
b101 @
b1101001100000011111100101110011 >
b10110110110010110001110110100000 A
1%
#1820000
0%
#1830000
b1001 @
b1101 ?
b11011110100000111111101110010001 =
b1010110000001010010110011000110 B
1%
#1840000
0%
#1850000
b101 @
b10111111111111010101101001100 >
b1101001100000011111100101110011 A
1%
#1860000
0%
#1870000
b1001 @
b1100 ?
b11010001010000011101111101010000 =
b11011110100000111111101110010001 B
1%
#1880000
0%
#1890000
b101 @
b10001111011011111011011100111 >
b10111111111111010101101001100 A
1%
#1900000
0%
#1910000
b1001 @
b1011 ?
b1010111101000011010100010100 =
b11010001010000011101111101010000 B
1%
#1920000
0%
#1930000
b101 @
b111110000111010011100101111000 >
b10001111011011111011011100111 A
1%
#1940000
0%
#1950000
b1001 @
b1010 ?
b101110001010010011101000111001 =
b1010111101000011010100010100 B
1%
#1960000
0%
#1970000
b101 @
b10010000011111010101110011110110 >
b111110000111010011100101111000 A
1%
#1980000
0%
#1990000
b1001 @
b1001 ?
b10011110101010111110001001000111 =
b101110001010010011101000111001 B
1%
#2000000
0%
#2010000
b101 @
b10100110011110111111000100110000 >
b10010000011111010101110011110110 A
1%
#2020000
0%
#2030000
b1001 @
b1000 ?
b10110001010100100110101011111101 =
b10011110101010111110001001000111 B
1%
#2040000
0%
#2050000
b101 @
b11110100011110100100101100011011 >
b10100110011110111111000100110000 A
1%
#2060000
0%
#2070000
b1001 @
b111 ?
b1110011010010011111110100010100 =
b10110001010100100110101011111101 B
1%
#2080000
0%
#2090000
b101 @
b10011111000001111001000110011101 >
b11110100011110100100101100011011 A
1%
#2100000
0%
#2110000
b1001 @
b110 ?
b10110010100110011111001001010101 =
b1110011010010011111110100010100 B
1%
#2120000
0%
#2130000
b101 @
b10111010101101110000100011001101 >
b10011111000001111001000110011101 A
1%
#2140000
0%
#2150000
b1001 @
b101 ?
b10111110000011101001010111010100 =
b10110010100110011111001001010101 B
1%
#2160000
0%
#2170000
b101 @
b10010111100100011010010000000100 >
b10111010101101110000100011001101 A
1%
#2180000
0%
#2190000
b1001 @
b100 ?
b11001001010111010111110110010011 =
b10111110000011101001010111010100 B
1%
#2200000
0%
#2210000
b101 @
b1101101010101000100010110110001 >
b10010111100100011010010000000100 A
1%
#2220000
0%
#2230000
b1001 @
b11 ?
b1111100000111010000010001100111 =
b11001001010111010111110110010011 B
1%
#2240000
0%
#2250000
b101 @
b1111111011011010111011100100011 >
b1101101010101000100010110110001 A
1%
#2260000
0%
#2270000
b1001 @
b10 ?
b1110110001111101011001001101000 =
b1111100000111010000010001100111 B
1%
#2280000
0%
#2290000
b101 @
b1100101001001110011100001000110 >
b1111111011011010111011100100011 A
1%
#2300000
0%
b1001100001110110010101000011001000010000111111101101110010111010 )
b1001100001110110010101000011001000010000111111101101110010111010 -
1'
#2310000
b1001 @
b1 ?
b10001010010101100000100111100110 =
b1110110001111101011001001101000 B
1%
#2320000
0%
#2330000
b101 @
b1111111101010000000100110101 >
b1100101001001110011100001000110 A
1%
#2340000
0%
#2350000
b1001 @
b0 ?
b100101000111000010111111101111 =
b10001010010101100000100111100110 B
1%
#2360000
0%
#2370000
b101 @
b1001000110100010101100111 >
b1111111101010000000100110101 A
1%
#2380000
0%
#2390000
b111 @
b11111 ?
b10001001101010111100110111101111 =
b100101000111000010111111101111 B
1%
#2400000
0%
#2410000
b0 @
1$
b100100011010001010110011110001001101010111100110111101111 "
b100100011010001010110011110001001101010111100110111101111 :
1%
#2420000
0%
#2430000
b1010 @
0$
0#
1%
#2440000
0%
#2450000
b1000 @
b0 ?
b10000111111101101110010111010 >
b10011000011101100101010000110010 =
1%
#2460000
0%
#2470000
b10 @
b10111100010010010011111010111010 >
b10000111111101101110010111010 A
1%
#2480000
0%
#2490000
b1000 @
b1 ?
b11010010100010010100000101110111 =
b10111100010010010011111010111010 B
1%
#2500000
0%
#2510000
b10 @
b1010111001010100100100110100100 >
b10111100010010010011111010111010 A
1%
#2520000
0%
#2530000
b1000 @
b10 ?
b11100100110001110000110111011100 =
b1010111001010100100100110100100 B
1%
#2540000
0%
#2550000
b10 @
b11110111110111101000011111110010 >
b1010111001010100100100110100100 A
1%
#2560000
0%
#2570000
b1000 @
b11 ?
b1111100101100001001000000000001 =
b11110111110111101000011111110010 B
1%
#2580000
0%
#2590000
b10 @
b1111111110000001110001101000101 >
b11110111110111101000011111110010 A
1%
#2600000
0%
#2610000
b1000 @
b100 ?
b100011000110101001100100010001 =
b1111111110000001110001101000101 B
1%
#2620000
0%
#2630000
b10 @
b10000111000100111010000100110011 >
b1111111110000001110001101000101 A
1%
#2640000
0%
#2650000
b1000 @
b101 ?
b10101100010100010000111110000100 =
b10000111000100111010000100110011 B
1%
#2660000
0%
#2670000
b10 @
b10000101110011100011111001010100 >
b10000111000100111010000100110011 A
1%
#2680000
0%
#2690000
b1000 @
b110 ?
b11111111010110101001000110000101 =
b10000101110011100011111001010100 B
1%
#2700000
0%
#2710000
b10 @
b11110111011101000110101100011101 >
b10000101110011100011111001010100 A
1%
#2720000
0%
#2730000
b1000 @
b111 ?
b11001101111011010010101110000000 =
b11110111011101000110101100011101 B
1%
#2740000
0%
#2750000
b10 @
b100001101000110100011100001001 >
b11110111011101000110101100011101 A
1%
#2760000
0%
#2770000
b1000 @
b1000 ?
b10001110100101001011111000110111 =
b100001101000110100011100001001 B
1%
#2780000
0%
#2790000
b10 @
b11001011101111001001111111010001 >
b100001101000110100011100001001 A
1%
#2800000
0%
#2810000
b1000 @
b1001 ?
b10100000110111100010000111101101 =
b11001011101111001001111111010001 B
1%
#2820000
0%
#2830000
b10 @
b10011000000011100011001010011010 >
b11001011101111001001111111010001 A
1%
#2840000
0%
#2850000
b1000 @
b1010 ?
b11111001001100100000000001001111 =
b10011000000011100011001010011010 B
1%
#2860000
0%
#2870000
b10 @
b1000111011001100110011010000000 >
b10011000000011100011001010011010 A
1%
#2880000
0%
#2890000
b1000 @
b1011 ?
b1011000000010110110100110000000 =
b1000111011001100110011010000000 B
1%
#2900000
0%
#2910000
b10 @
b1101100111000100110010111101100 >
b1000111011001100110011010000000 A
1%
#2920000
0%
#2930000
b1000 @
b1100 ?
b10011001100100010101111100110010 =
b1101100111000100110010111101100 B
1%
#2940000
0%
#2950000
b10 @
b1011001001111010111011010000101 >
b1101100111000100110010111101100 A
1%
#2960000
0%
#2970000
b1000 @
b1101 ?
b1011000110011010111010100100 =
b1011001001111010111011010000101 B
1%
#2980000
0%
#2990000
b10 @
b11000010011001011111111001111001 >
b1011001001111010111011010000101 A
1%
#3000000
0%
#3010000
b1000 @
b1110 ?
b110011101010101010001101010010 =
b11000010011001011111111001111001 B
1%
#3020000
0%
#3030000
b10 @
b1100001011100111011011100111 >
b11000010011001011111111001111001 A
1%
#3040000
0%
#3050000
b1000 @
b1111 ?
b1010011110100000001010011101100 =
b1100001011100111011011100111 B
1%
#3060000
0%
#3070000
b10 @
b11100110100101110001110111111011 >
b1100001011100111011011100111 A
1%
#3080000
0%
#3090000
b11 @
b10000 ?
b1010011000101100011110010000000 =
b11100110100101110001110111111011 B
1%
#3100000
0%
#3110000
b1010 @
b0 =
b0 >
b1111 ?
1#
b111010010000001110010000010001011011010011011111100011110011011 9
b111010010000001110010000010001011011010011011111100011110011011 !
b111010010000001110010000010001011011010011011111100011110011011 ;
1%
#3120000
0%
#3130000
b100 @
1%
#3140000
0%
#3150000
b1001 @
b1010011000101100011110010000000 >
b11100110100101110001110111111011 =
1%
#3160000
0%
#3170000
b101 @
b1010011110100000001010011101100 >
b1010011000101100011110010000000 A
1%
#3180000
0%
#3190000
b1001 @
b1110 ?
b1100001011100111011011100111 =
1%
#3200000
0%
#3210000
b101 @
b110011101010101010001101010010 >
b1010011110100000001010011101100 A
1%
#3220000
0%
#3230000
b1001 @
b1101 ?
b11000010011001011111111001111001 =
b1100001011100111011011100111 B
1%
#3240000
0%
#3250000
b101 @
b1011000110011010111010100100 >
b110011101010101010001101010010 A
1%
#3260000
0%
#3270000
b1001 @
b1100 ?
b1011001001111010111011010000101 =
b11000010011001011111111001111001 B
1%
#3280000
0%
#3290000
b101 @
b10011001100100010101111100110010 >
b1011000110011010111010100100 A
1%
#3300000
0%
#3310000
b1001 @
b1011 ?
b1101100111000100110010111101100 =
b1011001001111010111011010000101 B
1%
#3320000
0%
#3330000
b101 @
b1011000000010110110100110000000 >
b10011001100100010101111100110010 A
1%
#3340000
0%
#3350000
b1001 @
b1010 ?
b1000111011001100110011010000000 =
b1101100111000100110010111101100 B
1%
#3360000
0%
#3370000
b101 @
b11111001001100100000000001001111 >
b1011000000010110110100110000000 A
1%
#3380000
0%
#3390000
b1001 @
b1001 ?
b10011000000011100011001010011010 =
b1000111011001100110011010000000 B
1%
#3400000
0%
#3410000
b101 @
b10100000110111100010000111101101 >
b11111001001100100000000001001111 A
1%
#3420000
0%
#3430000
b1001 @
b1000 ?
b11001011101111001001111111010001 =
b10011000000011100011001010011010 B
1%
#3440000
0%
#3450000
b101 @
b10001110100101001011111000110111 >
b10100000110111100010000111101101 A
1%
#3460000
0%
#3470000
b1001 @
b111 ?
b100001101000110100011100001001 =
b11001011101111001001111111010001 B
1%
#3480000
0%
#3490000
b101 @
b11001101111011010010101110000000 >
b10001110100101001011111000110111 A
1%
#3500000
0%
#3510000
b1001 @
b110 ?
b11110111011101000110101100011101 =
b100001101000110100011100001001 B
1%
#3520000
0%
#3530000
b101 @
b11111111010110101001000110000101 >
b11001101111011010010101110000000 A
1%
#3540000
0%
#3550000
b1001 @
b101 ?
b10000101110011100011111001010100 =
b11110111011101000110101100011101 B
1%
#3560000
0%
#3570000
b101 @
b10101100010100010000111110000100 >
b11111111010110101001000110000101 A
1%
#3580000
0%
#3590000
b1001 @
b100 ?
b10000111000100111010000100110011 =
b10000101110011100011111001010100 B
1%
#3600000
0%
0'
#3610000
b101 @
b100011000110101001100100010001 >
b10101100010100010000111110000100 A
1%
#3620000
0%
#3630000
b1001 @
b11 ?
b1111111110000001110001101000101 =
b10000111000100111010000100110011 B
1%
#3640000
0%
#3650000
b101 @
b1111100101100001001000000000001 >
b100011000110101001100100010001 A
1%
#3660000
0%
#3670000
b1001 @
b10 ?
b11110111110111101000011111110010 =
b1111111110000001110001101000101 B
1%
#3680000
0%
#3690000
b101 @
b11100100110001110000110111011100 >
b1111100101100001001000000000001 A
1%
#3700000
0%
#3710000
b1001 @
b1 ?
b1010111001010100100100110100100 =
b11110111110111101000011111110010 B
1%
#3720000
0%
#3730000
b101 @
b11010010100010010100000101110111 >
b11100100110001110000110111011100 A
1%
#3740000
0%
#3750000
b1001 @
b0 ?
b10111100010010010011111010111010 =
b1010111001010100100100110100100 B
1%
#3760000
0%
#3770000
b101 @
b10011000011101100101010000110010 >
b11010010100010010100000101110111 A
1%
#3780000
0%
#3790000
b111 @
b11111 ?
b10000111111101101110010111010 =
b10111100010010010011111010111010 B
1%
#3800000
0%
#3810000
b0 @
1$
b1001100001110110010101000011001000010000111111101101110010111010 "
b1001100001110110010101000011001000010000111111101101110010111010 :
1%
#3820000
0%
#3830000
b1010 @
0$
0#
1%
#3840000
0%
#3850000
b0 @
1%
#3860000
0%
#3870000
b1010 @
1%
#3880000
0%
#3890000
b0 @
1%
#3900000
0%
#3910000
b1010 @
1%
#3920000
0%
#3930000
b0 @
1%
#3940000
0%
#3950000
b1010 @
1%
#3960000
0%
#3970000
b0 @
1%
#3980000
0%
#3990000
b1010 @
1%
#4000000
0%
#4010000
b0 @
1%
#4020000
0%
#4030000
b1010 @
1%
#4040000
0%
#4050000
b0 @
1%
#4060000
0%
#4070000
b1010 @
1%
#4080000
0%
#4090000
b0 @
1%
#4100000
0%
#4110000
b1010 @
1%
#4120000
0%
#4130000
b0 @
1%
#4140000
0%
#4150000
b1010 @
1%
#4160000
0%
#4170000
b0 @
1%
#4180000
0%
#4190000
b1010 @
1%
#4200000
0%
#4210000
b0 @
1%
#4220000
0%
#4230000
b1010 @
1%
#4240000
0%
#4250000
b0 @
1%
#4260000
0%
#4270000
b1010 @
1%
#4280000
0%
#4290000
b0 @
1%
#4300000
0%
#4310000
b1010 @
1%
#4320000
0%
#4330000
b0 @
1%
#4340000
0%
#4350000
b1010 @
1%
#4360000
0%
#4370000
b0 @
1%
#4380000
0%
#4390000
b1010 @
1%
#4400000
0%
#4410000
b0 @
1%
#4420000
0%
#4430000
b1010 @
1%
#4440000
0%
#4450000
b0 @
1%
#4460000
0%
#4470000
b1010 @
1%
#4480000
0%
#4490000
b0 @
1%
#4500000
0%
#4510000
b1010 @
1%
#4520000
0%
#4530000
b0 @
1%
#4540000
0%
#4550000
b1010 @
1%
#4560000
0%
#4570000
b0 @
1%
#4580000
0%
#4590000
b1010 @
1%
#4600000
0%
#4610000
b0 @
1%
#4620000
0%
#4630000
b1010 @
1%
#4640000
0%
#4650000
b0 @
1%
#4660000
0%
#4670000
b1010 @
1%
#4680000
0%
#4690000
b0 @
1%
#4700000
0%
#4710000
b1010 @
1%
#4720000
0%
#4730000
b0 @
1%
#4740000
0%
#4750000
b1010 @
1%
#4760000
0%
#4770000
b0 @
1%
#4780000
0%
#4790000
b1010 @
1%
#4800000
0%
#4810000
b0 @
1%
#4820000
0%
#4830000
b1010 @
1%
#4840000
0%
#4850000
b0 @
1%
#4860000
0%
#4870000
b1010 @
1%
#4880000
0%
#4890000
b0 @
1%
#4900000
0%
#4910000
b1010 @
1%
#4920000
0%
#4930000
b0 @
1%
#4940000
0%
#4950000
b1010 @
1%
#4960000
0%
#4970000
b0 @
1%
#4980000
0%
#4990000
b1010 @
1%
#5000000
0%
#5010000
b0 @
1%
#5020000
0%
#5030000
b1010 @
1%
#5040000
0%
#5050000
b0 @
1%
#5060000
0%
#5070000
b1010 @
1%
#5080000
0%
#5090000
b0 @
1%
#5100000
0%
#5110000
b1010 @
1%
#5120000
0%
#5130000
b0 @
1%
#5140000
0%
#5150000
b1010 @
1%
#5160000
0%
#5170000
b0 @
1%
#5180000
0%
#5190000
b1010 @
1%
#5200000
0%
#5210000
b0 @
1%
#5220000
0%
#5230000
b1010 @
1%
#5240000
0%
#5250000
b0 @
1%
#5260000
0%
#5270000
b1010 @
1%
#5280000
0%
#5290000
b0 @
1%
#5300000
0%
#5310000
b1010 @
1%
#5320000
0%
#5330000
b0 @
1%
#5340000
0%
#5350000
b1010 @
1%
#5360000
0%
#5370000
b0 @
1%
#5380000
0%
#5390000
b1010 @
1%
#5400000
0%
#5410000
b0 @
1%
#5420000
0%
#5430000
b1010 @
1%
#5440000
0%
#5450000
b0 @
1%
#5460000
0%
#5470000
b1010 @
1%
#5480000
0%
#5490000
b0 @
1%
#5500000
0%
#5510000
b1010 @
1%
#5520000
0%
#5530000
b0 @
1%
#5540000
0%
#5550000
b1010 @
1%
#5560000
0%
#5570000
b0 @
1%
#5580000
0%
#5590000
b1010 @
1%
